Poisson Regression Examples – Cecelia’s Website
…
airbnb_clean <- airbnb %>%
  filter(!is.na(bathrooms),
         !is.na(review_scores_cleanliness),
         !is.na(review_scores_location),
         !is.na(review_scores_value),
         !is.na(number_of_reviews),
         !is.na(bedrooms),
         !is.na(price),
         !is.na(room_type),
         !is.na(instant_bookable))

airbnb_clean

# A tibble: 30,160 × 14
    ...1    id  days last_scraped host_since room_type  bathrooms bedrooms price
   <dbl> <dbl> <dbl> <chr>        <chr>      <chr>          <dbl>    <dbl> <dbl>
 1     1  2515  3130 4/2/2017     9/6/2008   Private r…         1        1    59
 2     2  2595  3127 4/2/2017     9/9/2008   Entire ho…         1        0   230
 3     4  3831  3038 4/2/2017     12/7/2008  Entire ho…         1        1    89
 4     6  5099  2981 4/2/2017     2/2/2009   Entire ho…         1        1   212
 5     7  5107  2981 4/2/2017     2/2/2009   Entire ho…         1        2   250
 6     9  5172  2980 4/2/2017     2/3/2009   Entire ho…         1        1   129
 7    10  5178  2952 4/2/2017     3/3/2009   Private r…         1        1    79
 8    11  5203  2978 4/2/2017     2/5/2009   Private r…         1        1    79
 9    12  5238  2976 4/2/2017     2/7/2009   Entire ho…         1        1   140
10    13  5441  2967 4/2/2017     2/16/2009  Private r…         1        1   126
# … with 30,150 more rows, and 5 more variables: number_of_reviews <dbl>,
#   review_scores_cleanliness <dbl>, review_scores_location <dbl>,
#   review_scores_value <dbl>, instant_bookable <lgl>
…
